<?xml version="1.0" encoding="utf-8"?>
<!-- Generator: Adobe Illustrator 24.1.0, SVG Export Plug-In . SVG Version: 6.00 Build 0)  -->


<svg version="1.1" id="Layer_1" xmlns="http://www.w3.org/2000/svg" xmlns:xlink="http://www.w3.org/1999/xlink" x="0px" y="0px" viewBox="0 0 50 50" style="enable-background:new 0 0 50 50;" xml:space="preserve">


<style type="text/css">
	.st0{fill:#A3C637;}
	.st1{fill:#F49C24;}
	.st2{fill:#E51F59;}
	.st3{fill:#1AB6DB;}
</style>


<g>
	

<polygon class="st0" points="33.6,13.9 28.2,8.5 14.39,22.3 17.09,25 14.39,27.7 28.2,41.5 33.6,36.1 22.5,25 	"></polygon>
	

<path class="st1" d="M16.99,30.62c-3.1-0.05-5.57-2.61-5.52-5.71c0.05-3.1,2.61-5.57,5.71-5.52c3.1,0.05,5.57,2.61,5.52,5.71
		C22.65,28.2,20.1,30.67,16.99,30.62"></path>
	

<path class="st2" d="M31.01,33.19c-3.1-0.05-5.66,2.42-5.71,5.52c-0.05,3.1,2.42,5.66,5.52,5.72c3.1,0.05,5.66-2.42,5.71-5.52
		C36.58,35.81,34.11,33.25,31.01,33.19"></path>
	

<path class="st3" d="M31.01,16.81c-3.1,0.05-5.66-2.42-5.71-5.52c-0.05-3.1,2.42-5.66,5.52-5.72c3.1-0.05,5.66,2.42,5.71,5.52
		C36.58,14.19,34.11,16.75,31.01,16.81"></path>
</g>
</svg>