<?xml version="1.0" encoding="utf-8"?>
<!-- Generator: Adobe Illustrator 24.1.2, SVG Export Plug-In . SVG Version: 6.00 Build 0)  -->
<svg version="1.1" id="Layer_1" xmlns="http://www.w3.org/2000/svg" xmlns:xlink="http://www.w3.org/1999/xlink" x="0px" y="0px"
	 width="288px" height="192px" viewBox="0 0 288 192" style="enable-background:new 0 0 288 192;" xml:space="preserve">
<style type="text/css">
	.st0{fill:#AFCB20;}
	.st1{fill:none;stroke:#FFFFFF;stroke-width:2;stroke-miterlimit:10;}
	.st2{fill:#FFFFFF;}
</style>
<rect x="-0.6" y="-0.1" class="st0" width="288" height="192"/>
<path class="st1" d="M113.7,66.7h60.6c5.8,0,10.5,4.7,10.5,10.5v37.6c0,5.8-4.7,10.5-10.5,10.5h-60.6c-5.8,0-10.5-4.7-10.5-10.5
	V77.2C103.2,71.4,107.9,66.7,113.7,66.7z"/>
<path class="st2" d="M138.1,104.3V87.6c0-0.5,0.4-0.9,0.9-0.9c0.1,0,0.3,0,0.4,0.1l15.4,7.9c0.4,0.2,0.6,0.8,0.4,1.2
	c-0.1,0.2-0.2,0.3-0.4,0.4l-15.3,8.8c-0.4,0.3-1,0.1-1.2-0.3C138.2,104.7,138.1,104.5,138.1,104.3z"/>
</svg>
