
<svg xmlns="http://www.w3.org/2000/svg" viewBox="0 0 32 32" width="32" height="32">



<title>arrow left</title>



<g class="nc-icon-wrapper" stroke-linecap="square" stroke-linejoin="miter" stroke-width="2" fill="#0c96c4" stroke="#0c96c4">



<line data-cap="butt" data-color="color-2" fill="none" stroke-miterlimit="10" x1="30" y1="16" x2="2" y2="16" stroke-linecap="butt"></line> 



<polyline fill="none" stroke="#0c96c4" stroke-miterlimit="10" points="11,25 2,16 11,7 "></polyline></g></svg>