<?xml version="1.0" encoding="utf-8"?>
<!-- Generator: Adobe Illustrator 24.1.2, SVG Export Plug-In . SVG Version: 6.00 Build 0)  -->
<svg version="1.1" id="Layer_1" xmlns="http://www.w3.org/2000/svg" xmlns:xlink="http://www.w3.org/1999/xlink" x="0px" y="0px"
	 width="24px" height="24px" viewBox="0 0 24 24" style="enable-background:new 0 0 24 24;" xml:space="preserve">
<style type="text/css">
	.st0{fill:none;stroke:#AFCB20;stroke-width:2;stroke-linecap:square;stroke-miterlimit:10;}
</style>
<g>
	<line class="st0" x1="12" y1="6" x2="12" y2="12"/>
	<line class="st0" x1="9" y1="9" x2="15" y2="9"/>
	<path class="st0" d="M21,22l-9-5l-9,5V3c0-1.1,0.9-2,2-2h14c1.1,0,2,0.9,2,2V22z"/>
</g>
</svg>
