<?xml version="1.0" encoding="utf-8"?>
<!-- Generator: Adobe Illustrator 24.1.2, SVG Export Plug-In . SVG Version: 6.00 Build 0)  -->
<svg version="1.1" id="Layer_1" xmlns="http://www.w3.org/2000/svg" xmlns:xlink="http://www.w3.org/1999/xlink" x="0px" y="0px"
	 width="32px" height="32px" viewBox="0 0 32 32" style="enable-background:new 0 0 32 32;" xml:space="preserve">
<style type="text/css">
	.st0{fill:#AFCB20;}
</style>
<g>
	<path class="st0" d="M27,0H9C7.7,0,6.6,0.8,6.2,2H25c1.7,0,3,1.3,3,3v21.7l2,1.3V3C30,1.3,28.7,0,27,0z"/>
	<path class="st0" d="M23,4H5C3.3,4,2,5.3,2,7v25l12-8l12,8V7C26,5.3,24.7,4,23,4z"/>
</g>
</svg>
