
<svg xmlns="http://www.w3.org/2000/svg" width="8.473" height="16.062" viewBox="0 0 8.473 16.062" stroke="#172664" fill="#172664">
  













<path id="Path_10" data-name="Path 10" d="M14.424,278.5l7.956,7.412,7.412-7.412" transform="translate(-278.134 30.146) rotate(-90)" fill="none" stroke="#C43C00" stroke-width="1"></path>
</svg>