
<svg xmlns="http://www.w3.org/2000/svg" width="26.735" height="27.309" viewBox="0 0 26.735 27.309" stroke="#172664" fill="#172664">
  












<g id="Group_120" data-name="Group 120" transform="translate(-972.123 -129.874)" stroke="#172664" fill="#172664">
    












<g id="Group_50" data-name="Group 50" transform="translate(292.674 79.964)" stroke="#172664" fill="#172664">
      












<line id="Line_16" data-name="Line 16" x2="24.735" transform="translate(680.449 59.527)" fill="none" stroke="#C43C00" stroke-linecap="round" stroke-miterlimit="10" stroke-width="2"></line>
      












<line id="Line_18" data-name="Line 18" x2="24.735" transform="translate(680.449 67.625)" fill="none" stroke="#C43C00" stroke-linecap="round" stroke-miterlimit="10" stroke-width="2"></line>
    </g>
    












<path id="Path_139" data-name="Path 139" d="M-783.88-3505.315l4.609,4.393,4.609-4.393" transform="translate(1765 3636.188)" fill="none" stroke="#C43C00" stroke-linecap="round" stroke-linejoin="round" stroke-width="2"></path>
    












<path id="Path_185" data-name="Path 185" d="M-783.88-3505.314l4.609,4.811,4.609-4.811" transform="translate(207.12 -3349.132) rotate(180)" fill="none" stroke="#C43C00" stroke-linecap="round" stroke-linejoin="round" stroke-width="2"></path>
  </g>
</svg>