
<svg xmlns="http://www.w3.org/2000/svg" width="19.055" height="19.054" viewBox="0 0 19.055 19.054" stroke="#172664" fill="#172664">
  












<g id="Group_18" data-name="Group 18" transform="translate(-526.988 -170.787)" stroke="#172664" fill="#172664">
    












<path id="Path_12" data-name="Path 12" d="M0,0V22.947" transform="translate(528.402 172.201) rotate(-45)" fill="none" stroke="#C43C00" stroke-linecap="round" stroke-width="2"></path>
    












<path id="Path_13" data-name="Path 13" d="M0,0V22.947" transform="translate(544.628 172.201) rotate(45)" fill="none" stroke="#C43C00" stroke-linecap="round" stroke-width="2"></path>
  </g>
</svg>