
<svg version="1.1" xmlns="http://www.w3.org/2000/svg" xmlns:xlink="http://www.w3.org/1999/xlink" x="0px" y="0px" viewBox="0 0 32 32" xml:space="preserve" width="32" height="32" stroke="#172664" fill="#172664">












<title stroke="#172664" fill="#172664">moon</title>












<g class="nc-icon-wrapper" stroke-linecap="square" stroke-linejoin="miter" stroke-width="2" fill="#0c96c4" stroke="#0c96c4">












<path fill="none" stroke="#0c96c4" stroke-miterlimit="10" d="M26.2,20 C18.4,20,12,13.6,12,5.8c0-1.3,0.2-2.6,0.5-3.8C6.5,3.7,2,9.2,2,15.7C2,23.6,8.4,30,16.3,30c6.6,0,12.1-4.5,13.7-10.5 C28.8,19.8,27.5,20,26.2,20z"></path></g></svg>