
<svg xmlns="http://www.w3.org/2000/svg" width="16.41" height="16.41" viewBox="0 0 16.41 16.41" stroke="#172664" fill="#172664">
  












<g id="Group_105" data-name="Group 105" transform="translate(-867.231 -494.292)" stroke="#172664" fill="#172664">
    












<path id="Path_112" data-name="Path 112" d="M917.038,495.784h0a2.344,2.344,0,0,0-3.315,0l-9.3,9.3a1.7,1.7,0,0,0-.417.682l-1.242,3.869a.336.336,0,0,0,.423.423l3.863-1.24a1.723,1.723,0,0,0,.692-.422l9.292-9.292A2.344,2.344,0,0,0,917.038,495.784Z" transform="translate(-34.889 0)" fill="#C43C00" stroke="#C43C00" stroke-miterlimit="10" stroke-width="1.25"></path>
  </g>
</svg>