
<svg xmlns="http://www.w3.org/2000/svg" viewBox="0 0 16 16" width="16" height="16">

<title>pen 2</title>

<g class="nc-icon-wrapper" fill="#0c96c4">

<path fill="#0c96c4" d="M13.1,0.3c-0.4-0.4-1-0.4-1.4,0L0,12v4h4L15.7,4.3c0.4-0.4,0.4-1,0-1.4L13.1,0.3z"></path></g></svg>