<?xml version="1.0" encoding="utf-8"?>
<!-- Generator: Adobe Illustrator 24.1.2, SVG Export Plug-In . SVG Version: 6.00 Build 0)  -->
<svg version="1.1" id="Layer_1" xmlns="http://www.w3.org/2000/svg" xmlns:xlink="http://www.w3.org/1999/xlink" x="0px" y="0px"
	 width="32px" height="32px" viewBox="0 0 32 32" style="enable-background:new 0 0 32 32;" xml:space="preserve">
<style type="text/css">
	.st0{fill:none;stroke:#AFCB20;stroke-width:2;stroke-miterlimit:10;}
	.st1{fill:none;stroke:#AFCB20;stroke-width:2;stroke-linecap:square;stroke-miterlimit:10;}
</style>
<g>
	<line class="st0" x1="16" y1="30" x2="16" y2="18"/>
	<polyline class="st1" points="22,24 16,30 10,24 	"/>
	<line class="st0" x1="16" y1="2" x2="16" y2="14"/>
	<polyline class="st1" points="22,8 16,2 10,8 	"/>
</g>
</svg>
