
<svg xmlns="http://www.w3.org/2000/svg" viewBox="0 0 32 32" width="32" height="32" stroke="#172664" fill="#172664">












<title stroke="#172664" fill="#172664">filter</title>












<g class="nc-icon-wrapper" stroke-linecap="square" stroke-linejoin="miter" stroke-width="2" fill="#0c96c4" stroke="#0c96c4">












<polygon points="30 5 19 16 19 26 13 30 13 16 2 5 2 1 30 1 30 5" fill="none" stroke="#0c96c4" stroke-miterlimit="10"></polygon></g></svg>