
<svg xmlns="http://www.w3.org/2000/svg" width="28.488" height="28.054" viewBox="0 0 28.488 28.054" stroke="#172664" fill="#172664">
  












<path id="Path_50" data-name="Path 50" d="M633.221,287.67,623.4,275.712a.741.741,0,0,1,.573-1.212h24.959a.741.741,0,0,1,.553,1.235l-10.651,11.929a.742.742,0,0,0-.188.494v11.969a.416.416,0,0,1-.588.378l-4.232-1.923a.742.742,0,0,1-.435-.675v-9.766A.74.74,0,0,0,633.221,287.67Z" transform="translate(-622.208 -273.5)" fill="#C43C00" stroke="#C43C00" stroke-linecap="round" stroke-linejoin="round" stroke-miterlimit="10" stroke-width="2"></path>
</svg>