
<svg xmlns="http://www.w3.org/2000/svg" viewBox="0 0 64 64" width="64" height="64">

<title>privacy</title>

<g class="nc-icon-wrapper" stroke-linecap="square" stroke-linejoin="miter" stroke-width="2" fill="#0c96c4" stroke="#0c96c4">

<path d="M57,37A24,24,0,0,1,9,37V9L33,3,57,9Z" fill="none" stroke="#0c96c4" stroke-miterlimit="10"></path>

<circle cx="33" cy="38" r="1" fill="none" stroke-miterlimit="10" data-color="color-2"></circle>

<rect x="23" y="31" width="20" height="14" fill="none" stroke-miterlimit="10" data-color="color-2"></rect>

<path d="M27,31V23a6,6,0,0,1,6-6h0a6,6,0,0,1,6,6v8" fill="none" stroke-miterlimit="10" data-color="color-2"></path></g></svg>