<?xml version="1.0" encoding="UTF-8"?>













<svg xmlns="http://www.w3.org/2000/svg" id="Layer_1" data-name="Layer 1" viewBox="0 0 59.35 59.35" stroke="#172664" fill="#172664">
   












<defs stroke="#172664" fill="#172664">
      












<style stroke="#172664" fill="#172664">.cls-1{}.cls-2,.cls-3{stroke-linecap:round;stroke-width:2px;}.cls-2{stroke-miterlimit:10;}.cls-3{stroke-linejoin:round;}</style>
   </defs>
   












<title stroke="#172664" fill="#172664">all_icons</title>
   












<g id="Group_276" data-name="Group 276" stroke="#172664" fill="#172664">
      












<circle id="Ellipse_76" data-name="Ellipse 76" class="cls-1" cx="29.67" cy="29.67" r="21.82" fill="#ffffff" stroke="#172664"></circle>
      












<g id="Group_56" data-name="Group 56" stroke="#172664" fill="#172664">
         












<g id="Group_45" data-name="Group 45" stroke="#172664" fill="#172664">
            












<line id="Line_14" data-name="Line 14" class="cls-2" x1="26.75" y1="32.02" x2="19.03" y2="39.54" fill="none" stroke="#C43C00"></line>
            












<path id="Path_134" data-name="Path 134" class="cls-3" d="M21,32h5.76V38.2" fill="none" stroke="#C43C00"></path>
         </g>
         












<g id="Group_47" data-name="Group 47" stroke="#172664" fill="#172664">
            












<g id="Group_46" data-name="Group 46" stroke="#172664" fill="#172664">
               












<line id="Line_15" data-name="Line 15" class="cls-2" x1="31.95" y1="26.62" x2="39.46" y2="19.11" fill="none" stroke="#C43C00"></line>
            </g>
            












<path id="Path_136" data-name="Path 136" class="cls-3" d="M37.71,26.62H32V20.45" fill="none" stroke="#C43C00"></path>
         </g>
      </g>
   </g>
</svg>