
<svg xmlns="http://www.w3.org/2000/svg" width="10.65" height="15.213" viewBox="0 0 10.65 15.213" stroke="#172664" fill="#172664">
  












<path id="Path_204" data-name="Path 204" d="M512.979,476.455V463.691a.916.916,0,0,1,.916-.916h7.567a.916.916,0,0,1,.916.916v12.765a.27.27,0,0,1-.446.206l-4.012-3.415a.374.374,0,0,0-.484,0l-4.011,3.414A.271.271,0,0,1,512.979,476.455Z" transform="translate(-512.354 -462.15)" fill="#C43C00" stroke="#C43C00" stroke-miterlimit="10" stroke-width="1.25"></path>
</svg>