
<svg xmlns="http://www.w3.org/2000/svg" viewBox="0 0 32 32" width="32" height="32" stroke="#ffffff" fill="#ffffff">












<title stroke="#ffffff" fill="#ffffff">search</title>












<g class="nc-icon-wrapper" stroke-linecap="square" stroke-linejoin="miter" stroke-width="2" fill="#ffffff" stroke="#ffffff">












<line data-color="color-2" x1="29" y1="29" x2="24" y2="24" fill="none" stroke-miterlimit="10" stroke="#ffffff"></line> 












<path data-cap="butt" data-color="color-2" d="M6,13a7,7,0,0,1,7-7" fill="none" stroke-miterlimit="10" stroke-linecap="butt" stroke="#ffffff"></path> 












<circle cx="13" cy="13" r="11" fill="none" stroke="#ffffff" stroke-miterlimit="10"></circle></g></svg>