<?xml version="1.0" encoding="utf-8"?>
<!-- Generator: Adobe Illustrator 24.1.2, SVG Export Plug-In . SVG Version: 6.00 Build 0)  -->
<svg version="1.1" id="Layer_1" xmlns="http://www.w3.org/2000/svg" xmlns:xlink="http://www.w3.org/1999/xlink" x="0px" y="0px"
	 width="32px" height="32px" viewBox="0 0 32 32" style="enable-background:new 0 0 32 32;" xml:space="preserve">
<style type="text/css">
	.st0{fill:none;stroke:#AFCB20;stroke-width:2;stroke-miterlimit:10;}
	.st1{fill:none;stroke:#AFCB20;stroke-width:2;stroke-linecap:square;stroke-miterlimit:10;}
</style>
<g>
	<line class="st0" x1="27" y1="16" x2="2" y2="16"/>
	<line class="st1" x1="30" y1="27" x2="15" y2="27"/>
	<line class="st1" x1="30" y1="5" x2="15" y2="5"/>
	<polyline class="st1" points="8,22 2,16 8,10 	"/>
</g>
</svg>
